{
  "header": {
    "version": 4,
    "description": "Karaoke Mugen Karaoke Data File"
  },
  "medias": [
    {
      "version": "Default",
      "filename": "ENG - Undertale - MV - Stronger Than You.mp4",
      "loudnorm": "-15.60,0.17,8.40,-25.74,-0.07",
      "filesize": 7985926,
      "duration": 171,
      "default": true,
      "lyrics": [
        {
          "filename": "ENG - Undertale - MV - Stronger Than You.ass",
          "default": true,
          "version": "Default"
        }
      ]
    }
  ],
  "data": {
    "created_at": "2024-05-31T22:00:45.454Z",
    "ignoreHooks": false,
    "kid": "c0cc4ac7-d39c-49b8-b033-f88a41b4c997",
    "modified_at": "2024-05-31T22:03:30.141Z",
    "repository": "kara.moe",
    "tags": {
      "authors": [
        "3e673a87-48ef-4da9-b115-92115e0cb221"
      ],
      "collections": [
        "c7db86a0-ff64-4044-9be4-66dd1ef1d1c1"
      ],
      "creators": [
        "4dc1d252-6150-47ce-b28b-ee2dc42e962b"
      ],
      "families": [
        "0377db02-3af6-43b8-9b08-c759df3d25c3"
      ],
      "groups": [
        "ae613721-1fbe-480d-ba6b-d6d0702b184d",
        "df5f446f-d161-4760-8e0c-822e70ea03ae"
      ],
      "langs": [
        "de5eda1c-5fb3-46a6-9606-d4554fc5a1d6"
      ],
      "misc": [
        "07af42d1-824e-407e-bf37-7fb84905484b"
      ],
      "origins": [
        "ac5085db-52d8-44b4-8fbb-1697b24d2046"
      ],
      "series": [
        "65fede7e-7902-4a35-937d-242b9550f1d8"
      ],
      "singers": [
        "bda1c996-4acb-4df3-b9e0-14554d5fbd6d"
      ],
      "songtypes": [
        "7be1b15c-cff8-4b37-a649-5c90f3d569a9"
      ],
      "songwriters": [
        "10ee4d6b-b82f-41ab-9bba-5344dd19df7d",
        "8a6332cb-216d-44b4-b724-eedb5d6f27b3",
        "c33b3bb2-69e7-4ab2-b41e-fde19ba0a29d"
      ]
    },
    "titles": {
      "eng": "Stronger Than You"
    },
    "titles_default_language": "eng",
    "year": 2015
  }
}