{
  "header": {
    "version": 4,
    "description": "Karaoke Mugen Karaoke Data File"
  },
  "medias": [
    {
      "version": "Default",
      "filename": "ENG - Chainsaw Man - MV - Chu,Tayousei. ~ Full Vers.mp4",
      "loudnorm": "-6.84,1.16,3.60,-16.90,-0.52",
      "filesize": 93186922,
      "duration": 207,
      "default": true,
      "lyrics": [
        {
          "filename": "ENG - Chainsaw Man - MV - Chu,Tayousei. ~ Full Vers.ass",
          "default": true,
          "version": "Default"
        }
      ]
    }
  ],
  "data": {
    "created_at": "2022-11-24T14:51:24.551Z",
    "ignoreHooks": false,
    "kid": "492e8829-95c4-44c8-b3d6-84decd7b1679",
    "modified_at": "2024-05-19T19:10:08.978Z",
    "parents": [
      "7492a83a-4b05-4288-b6a9-654d313c3338"
    ],
    "repository": "kara.moe",
    "tags": {
      "authors": [
        "9cdf3b70-3550-457c-bdb9-038f3253c6ad"
      ],
      "collections": [
        "c7db86a0-ff64-4044-9be4-66dd1ef1d1c1",
        "dbcf2c22-524d-4708-99bb-601703633927"
      ],
      "creators": [
        "83750683-7d56-47e6-8fad-f15c650dccd4"
      ],
      "families": [
        "0377db02-3af6-43b8-9b08-c759df3d25c3"
      ],
      "genres": [
        "a0aeef4a-6428-45ff-a6e1-468b595930c2"
      ],
      "groups": [
        "8e209ae4-4381-438f-89dc-1b21752027d2"
      ],
      "langs": [
        "4dcf9614-7914-42aa-99f4-dbce2e059133",
        "de5eda1c-5fb3-46a6-9606-d4554fc5a1d6"
      ],
      "origins": [
        "938de218-5343-4865-94d3-fb33f2eaa152"
      ],
      "series": [
        "0223cfec-8497-42fc-a5f4-b8eb0589c014"
      ],
      "singers": [
        "e69b3675-f591-4731-8d97-33b6ab90c62a"
      ],
      "songtypes": [
        "7be1b15c-cff8-4b37-a649-5c90f3d569a9"
      ],
      "songwriters": [
        "c8882365-d34e-4765-b2cd-b1751b26620c",
        "e69b3675-f591-4731-8d97-33b6ab90c62a",
        "f74e4afc-ed04-407c-8abe-c8f60724eaba"
      ],
      "versions": [
        "c2143a7f-6970-450e-8a79-0302db9220a9"
      ]
    },
    "titles": {
      "jpn": "ちゅ、多様性。",
      "qro": "Chu,Tayousei."
    },
    "titles_default_language": "qro",
    "year": 2022
  }
}