{
  "header": {
    "version": 4,
    "description": "Karaoke Mugen Karaoke Data File"
  },
  "medias": [
    {
      "version": "Default",
      "filename": "ITA - Versailles no Bara - MV - Lady Oscar ~ Full Vers.mp4",
      "audiogain": 2.62,
      "loudnorm": "-21.15,-0.04,6.00,-31.33,-0.77",
      "filesize": 8200106,
      "duration": 192,
      "default": true,
      "lyrics": [
        {
          "filename": "ITA - Versailles no Bara - MV - Lady Oscar ~ Full Vers.ass",
          "default": true,
          "version": "Default"
        }
      ]
    }
  ],
  "data": {
    "created_at": "2022-09-25T14:36:26.415Z",
    "ignoreHooks": false,
    "kid": "cb4e835d-94b6-45ac-bd26-93f1f8bb6d5c",
    "modified_at": "2022-09-25T15:00:54.797Z",
    "parents": [
      "35c43652-e763-4901-9536-8e96c9bc66ff"
    ],
    "repository": "kara.moe",
    "tags": {
      "authors": [
        "0871383e-f493-4a7c-b453-272ae48d9e85"
      ],
      "collections": [
        "c7db86a0-ff64-4044-9be4-66dd1ef1d1c1"
      ],
      "creators": [
        "53e900ec-a1ff-4c95-8b2d-a63995c2936f"
      ],
      "families": [
        "0377db02-3af6-43b8-9b08-c759df3d25c3"
      ],
      "groups": [
        "7792cc27-9ff9-4d47-9287-2338b7db1575"
      ],
      "langs": [
        "783496f0-1a2f-44c3-a906-02e8244148ae"
      ],
      "origins": [
        "938de218-5343-4865-94d3-fb33f2eaa152"
      ],
      "series": [
        "8126aba1-63b4-4baf-8f2e-ec398169e642"
      ],
      "singers": [
        "5ecaa80c-b618-4f81-8631-0ba77a6e5a23"
      ],
      "songtypes": [
        "7be1b15c-cff8-4b37-a649-5c90f3d569a9"
      ],
      "songwriters": [
        "5ecaa80c-b618-4f81-8631-0ba77a6e5a23"
      ],
      "versions": [
        "c2143a7f-6970-450e-8a79-0302db9220a9"
      ],
      "franchises": [
        "8126aba1-63b4-4baf-8f2e-ec398169e642"
      ]
    },
    "titles": {
      "ita": "Lady Oscar"
    },
    "titles_default_language": "ita",
    "title": "Lady Oscar",
    "year": 1982
  }
}