{
  "header": {
    "version": 4,
    "description": "Karaoke Mugen Karaoke Data File"
  },
  "medias": [
    {
      "version": "Default",
      "filename": "ITA - Meitantei Conan - OP2 - Detective Conan, l'infallibile.mp4",
      "audiogain": -7.26,
      "loudnorm": "-9.48,0.81,3.10,-19.70,-0.20",
      "filesize": 21485562,
      "duration": 59,
      "default": true,
      "lyrics": [
        {
          "filename": "ITA - Meitantei Conan - OP2 - Detective Conan, l'infallibile.ass",
          "default": true,
          "version": "Default"
        }
      ]
    }
  ],
  "data": {
    "created_at": "2021-06-03T17:21:37.178Z",
    "kid": "83fbe026-b32b-4aa6-b09e-c3e46e19a527",
    "modified_at": "2021-11-30T20:29:00.597Z",
    "repository": "kara.moe",
    "songorder": 2,
    "tags": {
      "authors": [
        "2eefc5c6-768c-4739-a6e0-ff4bada2a20a"
      ],
      "collections": [
        "c7db86a0-ff64-4044-9be4-66dd1ef1d1c1"
      ],
      "creators": [
        "53e900ec-a1ff-4c95-8b2d-a63995c2936f"
      ],
      "families": [
        "0377db02-3af6-43b8-9b08-c759df3d25c3"
      ],
      "genres": [
        "a0aeef4a-6428-45ff-a6e1-468b595930c2"
      ],
      "groups": [
        "3c14c864-533c-49e6-a3cc-6969f1233775"
      ],
      "langs": [
        "783496f0-1a2f-44c3-a906-02e8244148ae"
      ],
      "origins": [
        "938de218-5343-4865-94d3-fb33f2eaa152"
      ],
      "series": [
        "cfea16f2-e07f-4a2c-93e2-5de6cf659d69"
      ],
      "singers": [
        "12017b45-1a22-46ea-a41a-6751354fabba"
      ],
      "songtypes": [
        "f02ad9b3-0bd9-4aad-85b3-9976739ba0e4"
      ],
      "songwriters": [
        "12017b45-1a22-46ea-a41a-6751354fabba",
        "4d6cbf18-4aa9-4218-a527-e964b67a8297",
        "64a8cccb-769f-430d-b1d4-2073b0c52701"
      ],
      "franchises": [
        "cfea16f2-e07f-4a2c-93e2-5de6cf659d69"
      ]
    },
    "titles": {
      "eng": "Detective Conan, l'infallibile"
    },
    "title": "Detective Conan, l'infallibile",
    "year": 2007
  }
}