{
  "header": {
    "version": 4,
    "description": "Karaoke Mugen Karaoke Data File"
  },
  "medias": [
    {
      "version": "Default",
      "filename": "JPN - Rosenthal Aki - MV - Heroine Audition.mp4",
      "audiogain": -10.26,
      "loudnorm": "-7.17,1.11,4.30,-17.34,-1.43",
      "filesize": 69761836,
      "duration": 202,
      "default": true,
      "lyrics": [
        {
          "filename": "JPN - Rosenthal Aki - MV - Heroine Audition.ass",
          "default": true,
          "version": "Default"
        }
      ]
    }
  ],
  "data": {
    "created_at": "2022-01-27T19:58:25.691Z",
    "ignoreHooks": false,
    "kid": "d625dcee-f996-4554-a128-d630a671895e",
    "modified_at": "2022-01-27T20:07:57.781Z",
    "repository": "kara.moe",
    "tags": {
      "authors": [
        "4b50fcec-273e-4cc5-83f2-b156c2300f7f"
      ],
      "collections": [
        "c7db86a0-ff64-4044-9be4-66dd1ef1d1c1"
      ],
      "creators": [
        "0263d413-17bb-4cee-a311-6dd896eda1c9"
      ],
      "families": [
        "0377db02-3af6-43b8-9b08-c759df3d25c3"
      ],
      "groups": [
        "8e209ae4-4381-438f-89dc-1b21752027d2"
      ],
      "langs": [
        "4dcf9614-7914-42aa-99f4-dbce2e059133"
      ],
      "origins": [
        "5106d71b-a78e-4d19-a16d-f8fb6719538a"
      ],
      "singers": [
        "3325cf00-a75e-431a-8b2e-e888e47c8ed8"
      ],
      "songtypes": [
        "7be1b15c-cff8-4b37-a649-5c90f3d569a9"
      ],
      "songwriters": [
        "a76e43c2-7e0b-48bc-ad6b-6ccaff12e938",
        "ea1c607b-5c00-40a0-91c6-5b01b881b566"
      ]
    },
    "titles": {
      "eng": "Heroine Audition",
      "jpn": "ヒロインオーディション"
    },
    "title": "Heroine Audition",
    "year": 2021,
    "titles_default_language": "eng"
  }
}