{
  "header": {
    "version": 4,
    "description": "Karaoke Mugen Karaoke Data File"
  },
  "medias": [
    {
      "version": "Default",
      "filename": "JPN - Paradox Live THE ANIMATION - IN - 4 REAL.mp4",
      "loudnorm": "-17.42,-0.64,2.70,-27.47,0.21",
      "filesize": 28593433,
      "duration": 99,
      "default": true,
      "lyrics": [
        {
          "filename": "JPN - Paradox Live THE ANIMATION - IN - 4 REAL.ass",
          "default": true,
          "version": "Default"
        }
      ]
    }
  ],
  "data": {
    "created_at": "2023-10-22T16:24:37.710Z",
    "ignoreHooks": false,
    "kid": "43f06c0f-deb8-4c24-8eed-bc174bdd88d0",
    "modified_at": "2023-10-22T16:24:38.335Z",
    "repository": "kara.moe",
    "tags": {
      "authors": [
        "ee8628c8-9b7f-415b-bc0d-9b712d5daf8c"
      ],
      "collections": [
        "c7db86a0-ff64-4044-9be4-66dd1ef1d1c1"
      ],
      "creators": [
        "7658875f-1eb3-4c13-b590-08b3d5d67b06"
      ],
      "families": [
        "0377db02-3af6-43b8-9b08-c759df3d25c3"
      ],
      "groups": [
        "8e209ae4-4381-438f-89dc-1b21752027d2"
      ],
      "langs": [
        "4dcf9614-7914-42aa-99f4-dbce2e059133"
      ],
      "misc": [
        "1d6ceadf-a885-47e5-b23b-c07bf668a424"
      ],
      "origins": [
        "938de218-5343-4865-94d3-fb33f2eaa152"
      ],
      "series": [
        "2c3dd356-7123-4dc4-9aee-ff46bd1cba55"
      ],
      "singers": [
        "3d801120-2155-4e3e-8fb6-48994a42e53c",
        "681103a3-15ae-45d5-a0b8-3cc27be2be46",
        "f3362be6-9209-4426-b39b-226f1eaabab1",
        "f2917fb2-23ae-4fbd-bedc-bc9b77f11603"
      ],
      "singergroups": [
        "a5d07f62-2624-4380-a63e-bac185a7bd50"
      ],
      "songtypes": [
        "5e5250d9-351a-4a82-98eb-55db50ad8962"
      ],
      "songwriters": [
        "ca955570-bac4-463b-b5ff-e30a06afbf27",
        "f0c4a5de-9312-4d55-8df8-712c4f91e486"
      ],
      "franchises": [
        "75f920f8-98bf-4ef1-8c1b-5a26f4bfc16e"
      ]
    },
    "titles": {
      "eng": "4 REAL"
    },
    "titles_default_language": "eng",
    "year": 2023
  }
}