{
  "header": {
    "version": 4,
    "description": "Karaoke Mugen Karaoke Data File"
  },
  "medias": [
    {
      "version": "Default",
      "filename": "JPN - ZUTOMAYO - MV - Kira Killer.mp4",
      "audiogain": -3.45,
      "loudnorm": "-14.13,-5.73,5.40,-24.21,-0.59",
      "filesize": 82065650,
      "duration": 253,
      "default": true,
      "lyrics": [
        {
          "filename": "JPN - ZUTOMAYO - MV - Kira Killer.ass",
          "default": true,
          "version": "Default"
        }
      ]
    }
  ],
  "data": {
    "created_at": "2022-12-23T23:14:48.815Z",
    "ignoreHooks": false,
    "kid": "943f8388-4185-462c-b0f9-fa6de71e29c2",
    "modified_at": "2023-03-07T22:45:28.131Z",
    "repository": "kara.moe",
    "tags": {
      "authors": [
        "78d42fee-8d3e-4bd5-9c44-98ce55f7d21f",
        "90698f28-1d62-4673-82c4-33ae96b1ba97"
      ],
      "collections": [
        "c7db86a0-ff64-4044-9be4-66dd1ef1d1c1",
        "dbcf2c22-524d-4708-99bb-601703633927"
      ],
      "families": [
        "0377db02-3af6-43b8-9b08-c759df3d25c3"
      ],
      "groups": [
        "8e209ae4-4381-438f-89dc-1b21752027d2"
      ],
      "langs": [
        "4dcf9614-7914-42aa-99f4-dbce2e059133"
      ],
      "misc": [
        "ec4fee75-71fb-45b4-9772-2ca374b4b600"
      ],
      "origins": [
        "5106d71b-a78e-4d19-a16d-f8fb6719538a"
      ],
      "singers": [
        "c4cd517c-9219-4757-9d66-0ffb56c754f9",
        "d3f693d0-7d45-465e-82ed-a6723c600008"
      ],
      "singergroups": [
        "c7d361f6-c1cf-44b2-b40a-a18aa90f2d8f"
      ],
      "songtypes": [
        "7be1b15c-cff8-4b37-a649-5c90f3d569a9"
      ],
      "songwriters": [
        "c4cd517c-9219-4757-9d66-0ffb56c754f9",
        "c7d361f6-c1cf-44b2-b40a-a18aa90f2d8f",
        "c83db176-81d3-42fe-bd43-daaa2790da33",
        "d3f693d0-7d45-465e-82ed-a6723c600008"
      ]
    },
    "titles": {
      "jpn": "綺羅キラー",
      "qro": "Kira Killer"
    },
    "titles_default_language": "qro",
    "year": 2022
  }
}