{
  "header": {
    "version": 4,
    "description": "Karaoke Mugen Karaoke Data File"
  },
  "medias": [
    {
      "version": "Nadeko.",
      "filename": "JPN - Bakemonogatari - ED - Kimi no Shiranai Monogatari ~ Nadeko Vers. ~ Alternative Vers.mp4",
      "audiogain": 4.12,
      "loudnorm": "-20.58,-12.55,3.10,-30.79,-0.17",
      "filesize": 85426013,
      "duration": 90,
      "default": true,
      "lyrics": [
        {
          "filename": "JPN - Bakemonogatari - ED - Kimi no Shiranai Monogatari ~ Nadeko Vers. ~ Alternative Vers.ass",
          "default": true,
          "version": "Default"
        }
      ]
    }
  ],
  "data": {
    "created_at": "2017-10-11T17:01:19.000Z",
    "ignoreHooks": false,
    "kid": "b0ee24a7-abb4-473d-9d10-b1367e3de9ba",
    "modified_at": "2022-03-24T07:48:37.543Z",
    "parents": [
      "d10aa34b-2ed4-44e7-80fb-6e3ae1911fea"
    ],
    "repository": "kara.moe",
    "tags": {
      "authors": [
        "6bebcb04-2694-453c-9e0c-eb1a2e2718d9",
        "fa399f2f-ea1d-4902-8796-ea6d8218aff0"
      ],
      "collections": [
        "c7db86a0-ff64-4044-9be4-66dd1ef1d1c1"
      ],
      "creators": [
        "c3bd80ef-d1fe-427f-913f-a2ba2fe66114"
      ],
      "families": [
        "0377db02-3af6-43b8-9b08-c759df3d25c3"
      ],
      "groups": [
        "3c14c864-533c-49e6-a3cc-6969f1233775"
      ],
      "langs": [
        "4dcf9614-7914-42aa-99f4-dbce2e059133"
      ],
      "origins": [
        "938de218-5343-4865-94d3-fb33f2eaa152"
      ],
      "series": [
        "115d19ee-c8c9-4b8a-a401-edc09bcd612a"
      ],
      "singers": [
        "1d4bf64f-1fc5-4e97-a6cf-a15ab7517229",
        "3ca5fb2e-bff9-4b5d-a897-bd6ef6006d51"
      ],
      "songtypes": [
        "38c77c56-2b95-4040-b676-0994a8cb0597"
      ],
      "songwriters": [
        "b269bf90-79fc-4167-a78d-e22328df4ee0"
      ],
      "versions": [
        "9f63c359-d1bf-425a-bcf5-b245c2c9211d"
      ],
      "franchises": [
        "94c05ef3-bfff-4a4d-a1a4-b07c32389971"
      ]
    },
    "titles": {
      "qro": "Kimi no Shiranai Monogatari ~ Nadeko Vers.",
      "jpn": "君の知らない物語 ～ 撫子 Vers."
    },
    "titles_default_language": "qro",
    "title": "Kimi no Shiranai Monogatari ~ Nadeko Vers.",
    "year": 2009
  }
}