{
  "header": {
    "version": 4,
    "description": "Karaoke Mugen Karaoke Data File"
  },
  "medias": [
    {
      "version": "Default",
      "filename": "JPN - Code Geass Hangyaku no Lelouch - OP2 - Kaidoku Funou.mp4",
      "audiogain": 2.22,
      "loudnorm": "-19.47,-10.24,2.70,-29.54,-0.37",
      "filesize": 41431762,
      "duration": 91,
      "default": true,
      "lyrics": [
        {
          "filename": "JPN - Code Geass Hangyaku no Lelouch - OP2 - Kaidoku Funou.ass",
          "default": true,
          "version": "Default"
        }
      ]
    }
  ],
  "data": {
    "created_at": "2017-10-11T17:01:53.000Z",
    "ignoreHooks": false,
    "kid": "453dc0d6-1664-4580-bc22-25fce192f728",
    "modified_at": "2022-10-01T11:16:28.656Z",
    "repository": "kara.moe",
    "songorder": 2,
    "tags": {
      "authors": [
        "5bdaba57-27f8-4568-8806-76a807728766"
      ],
      "collections": [
        "c7db86a0-ff64-4044-9be4-66dd1ef1d1c1"
      ],
      "creators": [
        "ef8f80e1-d244-4aea-b7f0-984d6dd4b82b"
      ],
      "families": [
        "0377db02-3af6-43b8-9b08-c759df3d25c3"
      ],
      "genres": [
        "f60ba57d-5ef4-49e0-b93b-d0dcbcff6592"
      ],
      "groups": [
        "3c14c864-533c-49e6-a3cc-6969f1233775"
      ],
      "langs": [
        "4dcf9614-7914-42aa-99f4-dbce2e059133"
      ],
      "origins": [
        "938de218-5343-4865-94d3-fb33f2eaa152"
      ],
      "series": [
        "1cb3b851-435a-4078-8619-8711f963a92f"
      ],
      "singers": [
        "cb3cc7dd-3450-4ff6-bd2f-b493084e9b7b"
      ],
      "songtypes": [
        "f02ad9b3-0bd9-4aad-85b3-9976739ba0e4"
      ],
      "songwriters": [
        "cb3cc7dd-3450-4ff6-bd2f-b493084e9b7b"
      ],
      "franchises": [
        "1cb3b851-435a-4078-8619-8711f963a92f"
      ]
    },
    "titles": {
      "jpn": "解読不能",
      "qro": "Kaidoku Funô"
    },
    "titles_default_language": "qro",
    "title": "Kaidoku Funô",
    "year": 2006,
    "titles_aliases": [
      "Funou"
    ]
  }
}