{
  "header": {
    "version": 4,
    "description": "Karaoke Mugen Karaoke Data File"
  },
  "medias": [
    {
      "version": "Default",
      "filename": "JPN - Tokyo Revengers Seiya Kessen-hen - OP - White Noise.mp4",
      "loudnorm": "-19.76,-10.81,2.80,-29.84,-0.43",
      "filesize": 90568884,
      "duration": 91,
      "default": true,
      "lyrics": [
        {
          "filename": "JPN - Tokyo Revengers Seiya Kessen-hen - OP - White Noise.ass",
          "default": true,
          "version": "Default"
        }
      ]
    }
  ],
  "data": {
    "created_at": "2023-03-21T22:22:28.280Z",
    "ignoreHooks": false,
    "kid": "86fbf860-8ed1-415c-bbe8-7da9d65cdd9c",
    "modified_at": "2024-01-03T04:27:28.645Z",
    "repository": "kara.moe",
    "tags": {
      "authors": [
        "7848b5dc-a5df-4577-b640-147be5288cec"
      ],
      "collections": [
        "c7db86a0-ff64-4044-9be4-66dd1ef1d1c1"
      ],
      "creators": [
        "58186e9d-9478-47dc-8c95-eeea5c0a3317"
      ],
      "families": [
        "0377db02-3af6-43b8-9b08-c759df3d25c3"
      ],
      "groups": [
        "8e209ae4-4381-438f-89dc-1b21752027d2"
      ],
      "langs": [
        "4dcf9614-7914-42aa-99f4-dbce2e059133"
      ],
      "misc": [
        "fe819ff1-9db8-4a0f-85dc-0e322c9126c4"
      ],
      "origins": [
        "938de218-5343-4865-94d3-fb33f2eaa152"
      ],
      "series": [
        "cf1da2f0-4e55-4a1e-8315-226b275db0d7"
      ],
      "singers": [
        "a6faab1b-859e-4068-971a-c6ff47788c8a"
      ],
      "songtypes": [
        "f02ad9b3-0bd9-4aad-85b3-9976739ba0e4"
      ],
      "songwriters": [
        "ed300e84-8415-4842-8003-8244d2b2fb2c"
      ],
      "franchises": [
        "95d66227-b02b-4fc4-8e7e-f6a1a7ed41be"
      ]
    },
    "titles": {
      "eng": "White Noise",
      "jpn": "ホワイトノイズ",
      "qro": "White Noise"
    },
    "titles_default_language": "eng",
    "year": 2023
  }
}