{
  "header": {
    "version": 4,
    "description": "Karaoke Mugen Karaoke Data File"
  },
  "medias": [
    {
      "version": "Aqua & Okayu.",
      "filename": "JPN - Rikei ga Koi ni Ochita no de Shoumei Shite Mita. - MV - Turing Love ~ Aqua & Okayu Vers. ~ Cover Full Vers.mp4",
      "audiogain": -3.84,
      "loudnorm": "-13.92,-4.07,3.40,-24.01,-0.51",
      "filesize": 100223331,
      "duration": 219,
      "default": true,
      "lyrics": [
        {
          "filename": "JPN - Rikei ga Koi ni Ochita no de Shoumei Shite Mita. - MV - Turing Love ~ Aqua & Okayu Vers. ~ Cover Full Vers.ass",
          "default": true,
          "version": "Default"
        }
      ]
    }
  ],
  "data": {
    "created_at": "2021-08-07T21:15:13.631Z",
    "ignoreHooks": false,
    "kid": "0627701b-99f6-485f-b91b-46881d8e392d",
    "modified_at": "2022-01-21T18:22:59.959Z",
    "parents": [
      "573eae63-7929-4db1-b938-58fed32fd4b6"
    ],
    "repository": "kara.moe",
    "tags": {
      "authors": [
        "4b50fcec-273e-4cc5-83f2-b156c2300f7f"
      ],
      "collections": [
        "c7db86a0-ff64-4044-9be4-66dd1ef1d1c1"
      ],
      "creators": [
        "0263d413-17bb-4cee-a311-6dd896eda1c9"
      ],
      "families": [
        "0377db02-3af6-43b8-9b08-c759df3d25c3"
      ],
      "groups": [
        "8e209ae4-4381-438f-89dc-1b21752027d2"
      ],
      "langs": [
        "4dcf9614-7914-42aa-99f4-dbce2e059133"
      ],
      "origins": [
        "5106d71b-a78e-4d19-a16d-f8fb6719538a"
      ],
      "series": [
        "a41c38af-b962-463a-960d-1d2628828e31"
      ],
      "singers": [
        "5ccf4c5b-2a3a-4ada-a24d-6bfa58728689",
        "e219b9c0-a427-425b-af63-e0bcb114eef9"
      ],
      "songtypes": [
        "7be1b15c-cff8-4b37-a649-5c90f3d569a9"
      ],
      "songwriters": [
        "cb9b1959-0972-4eb8-9955-c2e4a4f3988d"
      ],
      "versions": [
        "03e1e1d2-8641-47b7-bbcb-39a3df9ff21c",
        "c2143a7f-6970-450e-8a79-0302db9220a9"
      ],
      "franchises": [
        "a41c38af-b962-463a-960d-1d2628828e31"
      ]
    },
    "titles": {
      "eng": "Turing Love ~ Aqua & Okayu Vers.",
      "jpn": "チューリングラブ ~ あくあ & おかゆ Vers."
    },
    "title": "Turing Love ~ Aqua & Okayu Vers.",
    "year": 2020,
    "titles_default_language": "eng"
  }
}