{
  "header": {
    "version": 4,
    "description": "Karaoke Mugen Karaoke Data File"
  },
  "medias": [
    {
      "version": "Default",
      "filename": "JPN - Koroshi Ai - ED - Makoto Period.webm",
      "loudnorm": "-16.00,-8.19,6.50,-26.41,-0.72",
      "filesize": 18996426,
      "duration": 89,
      "default": true,
      "lyrics": [
        {
          "filename": "JPN - Koroshi Ai - ED - Makoto Period.ass",
          "default": true,
          "version": "Default"
        }
      ]
    }
  ],
  "data": {
    "created_at": "2024-05-29T21:08:04.773Z",
    "ignoreHooks": false,
    "kid": "36413901-baf6-4da4-a2ec-6265328de102",
    "modified_at": "2024-05-29T21:10:09.226Z",
    "repository": "kara.moe",
    "tags": {
      "authors": [
        "4eb428fd-7c39-428d-a403-b7be2c096b6e"
      ],
      "collections": [
        "c7db86a0-ff64-4044-9be4-66dd1ef1d1c1",
        "dbcf2c22-524d-4708-99bb-601703633927"
      ],
      "creators": [
        "120465bd-82b3-4a23-b7e9-cb57b707d896"
      ],
      "families": [
        "0377db02-3af6-43b8-9b08-c759df3d25c3"
      ],
      "groups": [
        "8e209ae4-4381-438f-89dc-1b21752027d2"
      ],
      "langs": [
        "4dcf9614-7914-42aa-99f4-dbce2e059133"
      ],
      "origins": [
        "938de218-5343-4865-94d3-fb33f2eaa152"
      ],
      "series": [
        "9823096f-d891-4b3c-9d9d-6400b0997b8a"
      ],
      "singers": [
        "8f1cdf03-baf0-4294-bfdf-fdeedcdbeac5"
      ],
      "songtypes": [
        "38c77c56-2b95-4040-b676-0994a8cb0597"
      ],
      "songwriters": [
        "dd847c79-82cb-45b1-ae9b-ae2f8bd39417"
      ]
    },
    "titles": {
      "jpn": "マコトピリオド",
      "qro": "Makoto Period"
    },
    "titles_default_language": "qro",
    "year": 2022
  }
}