{
  "header": {
    "version": 4,
    "description": "Karaoke Mugen Karaoke Data File"
  },
  "medias": [
    {
      "version": "Default",
      "filename": "JPN - Synduality Noir - MV - Your Song ~ Short Vers.mp4",
      "loudnorm": "-13.97,-1.22,11.70,-24.28,-2.08",
      "filesize": 22694873,
      "duration": 164,
      "default": true,
      "lyrics": [
        {
          "filename": "JPN - Synduality Noir - MV - Your Song ~ Short Vers.ass",
          "default": true,
          "version": "Default"
        }
      ]
    }
  ],
  "data": {
    "created_at": "2024-04-10T14:38:42.053Z",
    "ignoreHooks": false,
    "kid": "f99c7cfd-e4fe-4761-b80e-ad3490ed70f1",
    "modified_at": "2024-04-10T14:38:42.348Z",
    "repository": "kara.moe",
    "tags": {
      "authors": [
        "449844e4-3a1f-46e1-8a92-bf72e2d1b6f1"
      ],
      "collections": [
        "c7db86a0-ff64-4044-9be4-66dd1ef1d1c1",
        "dbcf2c22-524d-4708-99bb-601703633927"
      ],
      "creators": [
        "126e5cf8-763f-43e2-9b09-8a30b586f256"
      ],
      "families": [
        "5391f9fe-638c-415f-8dc9-958e3a2c5787"
      ],
      "genres": [
        "caa86df2-0d59-474b-885c-f240a9e891b0"
      ],
      "groups": [
        "8e209ae4-4381-438f-89dc-1b21752027d2"
      ],
      "langs": [
        "4dcf9614-7914-42aa-99f4-dbce2e059133"
      ],
      "origins": [
        "938de218-5343-4865-94d3-fb33f2eaa152"
      ],
      "series": [
        "206774a2-08d1-412e-94ea-6f8b73cbbd6a"
      ],
      "singers": [
        "4a1c9511-daa2-4172-9367-5afb3312234e",
        "e8386ce8-5597-4605-b028-fb899064a78c"
      ],
      "songtypes": [
        "7be1b15c-cff8-4b37-a649-5c90f3d569a9"
      ],
      "songwriters": [
        "e59083d9-7a1d-4084-a20b-bc31cba3b244",
        "9cf842fc-394b-48d9-824e-d2cc62789611",
        "8feb8259-1bfc-4261-bb5b-dab93217998a"
      ],
      "versions": [
        "d125c80a-86c1-4321-88e9-07b7800679b6"
      ]
    },
    "titles": {
      "eng": "Your Song"
    },
    "titles_default_language": "eng",
    "year": 2024
  }
}