{
  "header": {
    "version": 4,
    "description": "Karaoke Mugen Karaoke Data File"
  },
  "medias": [
    {
      "version": "Default",
      "filename": "JPN - Final Fantasy IX - GAME PSX AMV - Melodies of Life.mp4",
      "audiogain": -6.53,
      "loudnorm": "-13.07,-0.26,11.40,-23.44,-1.56",
      "filesize": 92314243,
      "duration": 351,
      "default": true,
      "lyrics": [
        {
          "filename": "JPN - Final Fantasy IX - GAME PSX AMV - Melodies of Life.ass",
          "default": true,
          "version": "Default"
        }
      ]
    }
  ],
  "data": {
    "created_at": "2019-06-14T19:48:24.000Z",
    "ignoreHooks": false,
    "kid": "7684fb9b-b9e6-49f0-b302-939313ebc86e",
    "modified_at": "2023-05-18T17:12:25.186Z",
    "repository": "kara.moe",
    "tags": {
      "authors": [
        "10dd9fe7-e71e-47d6-85be-da1017f995f4"
      ],
      "collections": [
        "c7db86a0-ff64-4044-9be4-66dd1ef1d1c1"
      ],
      "creators": [
        "11259605-6535-4a8f-8156-6aaa1e81c4af"
      ],
      "groups": [
        "2b4e9972-5e17-481b-99f5-d0787c0ada56",
        "3c14c864-533c-49e6-a3cc-6969f1233775"
      ],
      "langs": [
        "4dcf9614-7914-42aa-99f4-dbce2e059133"
      ],
      "misc": [
        "86705d4b-24e4-4756-9687-2b9c98bcf366"
      ],
      "origins": [
        "dbedd6b3-d125-4cd8-aa32-c4175e4ca3a3"
      ],
      "platforms": [
        "f84b68ac-943a-495a-9c6e-d90ec959b19e"
      ],
      "series": [
        "b815e7ff-5310-4dc5-98d0-316442d23fb8"
      ],
      "singers": [
        "f02033a3-a81f-4532-90e6-b89b03c9dfca"
      ],
      "songtypes": [
        "a6c79ce5-89ee-4d50-afe8-3abd7317f6c2"
      ],
      "songwriters": [
        "22973edc-2b1d-4c54-9219-f5470f862bee"
      ],
      "franchises": [
        "595c5b14-54f8-4885-a689-02296506a704"
      ]
    },
    "titles": {
      "eng": "Melodies of Life"
    },
    "titles_default_language": "eng",
    "year": 2000
  }
}