{
  "header": {
    "version": 4,
    "description": "Karaoke Mugen Karaoke Data File"
  },
  "medias": [
    {
      "version": "Default",
      "filename": "JPN - C-CLAYS - REMIX AMV - Spring Shower.mp4",
      "loudnorm": "-13.57,-3.50,3.30,-23.60,-0.89",
      "filesize": 56725447,
      "duration": 222,
      "default": true,
      "lyrics": [
        {
          "filename": "JPN - C-CLAYS - REMIX AMV - Spring Shower.ass",
          "default": true,
          "version": "Default"
        }
      ]
    }
  ],
  "data": {
    "created_at": "2022-09-18T17:10:03.266Z",
    "ignoreHooks": false,
    "kid": "ed8a096a-55e9-4b44-8edb-2099ff5be6a8",
    "modified_at": "2024-05-04T15:07:12.420Z",
    "repository": "kara.moe",
    "tags": {
      "authors": [
        "1fbfef73-6731-40df-ba51-65a54b9d1605"
      ],
      "collections": [
        "c7db86a0-ff64-4044-9be4-66dd1ef1d1c1"
      ],
      "creators": [
        "12f0ebc4-e6c2-4c79-8920-64a5b4211593",
        "c9effdd4-a4cd-4a19-bc8e-cad7311ed2c5"
      ],
      "families": [
        "0377db02-3af6-43b8-9b08-c759df3d25c3"
      ],
      "groups": [
        "ae613721-1fbe-480d-ba6b-d6d0702b184d"
      ],
      "langs": [
        "4dcf9614-7914-42aa-99f4-dbce2e059133"
      ],
      "misc": [
        "ec4360fa-3e3c-4f6f-b0e1-fb8b12b6dd18"
      ],
      "origins": [
        "ac5085db-52d8-44b4-8fbb-1697b24d2046"
      ],
      "singers": [
        "300a44a2-be6e-482f-89ae-3c7e6210eaf5"
      ],
      "singergroups": [
        "12f0ebc4-e6c2-4c79-8920-64a5b4211593"
      ],
      "songtypes": [
        "a6c79ce5-89ee-4d50-afe8-3abd7317f6c2"
      ],
      "songwriters": [
        "26cb5252-8510-49e0-897c-a611a05fc056",
        "d9f0dddf-0f15-44a4-beea-ec0f4b82bc6c",
        "e1694955-16b5-40af-858f-24bbd1471535"
      ],
      "franchises": [
        "1bdaa5a1-dfa6-4365-b746-7a0b194dafd6"
      ]
    },
    "titles": {
      "eng": "Spring Shower"
    },
    "titles_default_language": "eng",
    "year": 2012
  }
}