{
  "header": {
    "version": 4,
    "description": "Karaoke Mugen Karaoke Data File"
  },
  "medias": [
    {
      "version": "Default",
      "filename": "JPN - Shinigami Bocchan to Kuro Maid - OP - Mangetsu to Silhouette no Yoru.mp4",
      "audiogain": -2.22,
      "loudnorm": "-16.07,-4.50,3.80,-26.23,-1.18",
      "filesize": 18628245,
      "duration": 89,
      "default": true,
      "lyrics": [
        {
          "filename": "JPN - Shinigami Bocchan to Kuro Maid - OP - Mangetsu to Silhouette no Yoru.ass",
          "default": true,
          "version": "Default"
        }
      ]
    }
  ],
  "data": {
    "created_at": "2021-09-13T16:25:45.382Z",
    "kid": "bd164983-a5b2-48f8-b92d-ff75e2b19178",
    "modified_at": "2021-09-13T16:28:32.529Z",
    "repository": "kara.moe",
    "tags": {
      "authors": [
        "e568de19-c003-4d37-8978-98f29ea61cb3"
      ],
      "collections": [
        "c7db86a0-ff64-4044-9be4-66dd1ef1d1c1"
      ],
      "creators": [
        "802a8ac8-b16f-40a4-944b-99956798c906"
      ],
      "families": [
        "0377db02-3af6-43b8-9b08-c759df3d25c3"
      ],
      "groups": [
        "8e209ae4-4381-438f-89dc-1b21752027d2"
      ],
      "langs": [
        "4dcf9614-7914-42aa-99f4-dbce2e059133"
      ],
      "misc": [
        "1d6ceadf-a885-47e5-b23b-c07bf668a424"
      ],
      "origins": [
        "938de218-5343-4865-94d3-fb33f2eaa152"
      ],
      "series": [
        "10e804f8-cec2-458c-a77b-bc8080216324"
      ],
      "singers": [
        "6c8360e3-36c6-4cfa-8f43-12ede11574f5",
        "f2917fb2-23ae-4fbd-bedc-bc9b77f11603"
      ],
      "songtypes": [
        "f02ad9b3-0bd9-4aad-85b3-9976739ba0e4"
      ],
      "songwriters": [
        "79b26d2f-a036-4ad5-b274-fc4ddaff1b05",
        "e4fe2286-9058-4509-9ba2-64b089651dca"
      ]
    },
    "titles": {
      "qro": "Mangetsu to Silhouette no Yoru",
      "jpn": "満月とシルエットの夜"
    },
    "title": "Mangetsu to Silhouette no Yoru",
    "year": 2021,
    "titles_default_language": "qro"
  }
}