{
  "header": {
    "version": 4,
    "description": "Karaoke Mugen Karaoke Data File"
  },
  "medias": [
    {
      "version": "Default",
      "filename": "JPN - Ginga Eiyuu Densetsu Die Neue These - Gekitotsu - MOVIE ONA ED - melt.mp4",
      "audiogain": -5.19,
      "loudnorm": "-11.26,0.28,5.70,-21.48,-1.39",
      "filesize": 29695951,
      "duration": 89,
      "default": true,
      "lyrics": [
        {
          "filename": "JPN - Ginga Eiyuu Densetsu Die Neue These - Gekitotsu - MOVIE ONA ED - melt.ass",
          "default": true,
          "version": "Default"
        }
      ]
    }
  ],
  "data": {
    "created_at": "2023-08-23T01:53:47.368Z",
    "ignoreHooks": false,
    "kid": "942fc28c-005f-4727-9a23-c25f41c0f179",
    "modified_at": "2023-08-23T01:56:13.521Z",
    "repository": "kara.moe",
    "tags": {
      "authors": [
        "7848b5dc-a5df-4577-b640-147be5288cec"
      ],
      "collections": [
        "c7db86a0-ff64-4044-9be4-66dd1ef1d1c1"
      ],
      "creators": [
        "20d023d6-5195-4e4f-bae3-8b28ad6334e2"
      ],
      "families": [
        "0377db02-3af6-43b8-9b08-c759df3d25c3"
      ],
      "groups": [
        "8e209ae4-4381-438f-89dc-1b21752027d2"
      ],
      "langs": [
        "4dcf9614-7914-42aa-99f4-dbce2e059133"
      ],
      "origins": [
        "c8ca9dea-d8b4-48fe-8427-d911653232e9",
        "8db3e098-06ef-45e5-bba9-cb04a21c1e66"
      ],
      "series": [
        "22cb8be0-a8a1-48b4-a5cd-16df527b4130"
      ],
      "singers": [
        "73536ef3-233b-46b0-8f5c-3160348c7cc6"
      ],
      "songtypes": [
        "38c77c56-2b95-4040-b676-0994a8cb0597"
      ],
      "songwriters": [
        "59621685-8dc1-4ce1-93b3-cf6c11dda3aa",
        "73536ef3-233b-46b0-8f5c-3160348c7cc6",
        "e0e8293e-4c3a-4a64-91cc-f47f687c5d08"
      ],
      "franchises": [
        "6656c553-99e5-45c2-a013-74406bdf7364"
      ]
    },
    "titles": {
      "eng": "melt"
    },
    "titles_default_language": "eng",
    "year": 2022
  }
}