{
  "header": {
    "version": 4,
    "description": "Karaoke Mugen Karaoke Data File"
  },
  "medias": [
    {
      "version": "Default",
      "filename": "JPN - SOUND HOLIC - REMIX MV - THE EVENING STAR.mp4",
      "loudnorm": "-14.63,-5.91,4.50,-24.69,-0.98",
      "filesize": 85947739,
      "duration": 287,
      "default": true,
      "lyrics": [
        {
          "filename": "JPN - SOUND HOLIC - REMIX MV - THE EVENING STAR.ass",
          "default": true,
          "version": "Default"
        }
      ]
    }
  ],
  "data": {
    "created_at": "2022-10-09T21:39:00.948Z",
    "ignoreHooks": false,
    "kid": "06b46fe5-f49a-4f59-896f-1f7c426a67d2",
    "modified_at": "2024-03-29T20:29:52.292Z",
    "repository": "kara.moe",
    "tags": {
      "authors": [
        "1fbfef73-6731-40df-ba51-65a54b9d1605"
      ],
      "collections": [
        "c7db86a0-ff64-4044-9be4-66dd1ef1d1c1"
      ],
      "creators": [
        "ca654b25-30b5-4054-a2c0-35028fdcae22"
      ],
      "families": [
        "0377db02-3af6-43b8-9b08-c759df3d25c3"
      ],
      "groups": [
        "ae613721-1fbe-480d-ba6b-d6d0702b184d"
      ],
      "langs": [
        "4dcf9614-7914-42aa-99f4-dbce2e059133"
      ],
      "misc": [
        "ec4360fa-3e3c-4f6f-b0e1-fb8b12b6dd18"
      ],
      "origins": [
        "ac5085db-52d8-44b4-8fbb-1697b24d2046"
      ],
      "singers": [
        "6668cc52-b622-41d7-b7b7-24d48a08045c"
      ],
      "singergroups": [
        "ca654b25-30b5-4054-a2c0-35028fdcae22"
      ],
      "songtypes": [
        "7be1b15c-cff8-4b37-a649-5c90f3d569a9"
      ],
      "songwriters": [
        "23351848-e3cc-4420-b564-db2bfe2b7f3d",
        "26cb5252-8510-49e0-897c-a611a05fc056",
        "a0dcd99e-5b7b-469b-8d9d-63e764eabe58"
      ],
      "franchises": [
        "1bdaa5a1-dfa6-4365-b746-7a0b194dafd6"
      ]
    },
    "titles": {
      "eng": "THE EVENING STAR"
    },
    "titles_default_language": "eng",
    "year": 2010
  }
}