{
  "header": {
    "version": 4,
    "description": "Karaoke Mugen Karaoke Data File"
  },
  "medias": [
    {
      "version": "Default",
      "filename": "JPN - Shoujo Kageki Revue Starlight - IN - Hanasaka Uta.mp4",
      "loudnorm": "-7.62,0.50,5.80,-17.69,-0.35",
      "filesize": 241565694,
      "duration": 298,
      "default": true,
      "lyrics": [
        {
          "filename": "JPN - Shoujo Kageki Revue Starlight - IN - Hanasaka Uta.ass",
          "default": true,
          "version": "Default"
        }
      ]
    }
  ],
  "data": {
    "created_at": "2024-05-28T13:39:36.619Z",
    "ignoreHooks": false,
    "kid": "b61e98c0-3d25-4048-aa08-69fa75af06dd",
    "modified_at": "2024-05-28T13:41:00.574Z",
    "repository": "kara.moe",
    "tags": {
      "authors": [
        "7848b5dc-a5df-4577-b640-147be5288cec"
      ],
      "collections": [
        "c7db86a0-ff64-4044-9be4-66dd1ef1d1c1"
      ],
      "creators": [
        "08df259d-c4ec-458e-a066-af38a9f7ccc5"
      ],
      "families": [
        "0377db02-3af6-43b8-9b08-c759df3d25c3"
      ],
      "genres": [
        "caa86df2-0d59-474b-885c-f240a9e891b0"
      ],
      "groups": [
        "8e209ae4-4381-438f-89dc-1b21752027d2"
      ],
      "langs": [
        "4dcf9614-7914-42aa-99f4-dbce2e059133"
      ],
      "misc": [
        "1d6ceadf-a885-47e5-b23b-c07bf668a424"
      ],
      "origins": [
        "938de218-5343-4865-94d3-fb33f2eaa152"
      ],
      "series": [
        "197ecb28-b423-4c66-bbdb-49b89b5ed153"
      ],
      "singers": [
        "1477f7cf-7a03-4ecc-a3eb-81fe697202ed",
        "d450e6ee-57dc-41ea-b60e-396135d6a2e8"
      ],
      "songtypes": [
        "5e5250d9-351a-4a82-98eb-55db50ad8962"
      ],
      "songwriters": [
        "0641a745-f1d3-4003-9f76-4ccc472fddad",
        "ead196cc-e1e3-43a4-8804-dd4199e89c4e",
        "179aa7d4-0722-4a37-a4a7-1f43355cbd7f"
      ],
      "franchises": [
        "197ecb28-b423-4c66-bbdb-49b89b5ed153"
      ]
    },
    "titles": {
      "jpn": "花咲か唄",
      "qro": "Hanasaka Uta"
    },
    "titles_default_language": "qro",
    "year": 2021
  }
}