{
  "header": {
    "version": 4,
    "description": "Karaoke Mugen Karaoke Data File"
  },
  "medias": [
    {
      "version": "Default",
      "filename": "JPN - Monogatari Series Second Season - OP3 - Mousou Express.mp4",
      "audiogain": 5.74,
      "loudnorm": "-22.28,-11.39,7.80,-32.36,-1.50",
      "filesize": 30594816,
      "duration": 91,
      "default": true,
      "lyrics": [
        {
          "filename": "JPN - Monogatari Series Second Season - OP3 - Mousou Express.ass",
          "default": true,
          "version": "Default"
        }
      ]
    }
  ],
  "data": {
    "created_at": "2017-10-11T17:01:25.000Z",
    "ignoreHooks": false,
    "kid": "9c3e63a7-e057-4b1e-aeb3-6dbf744df713",
    "modified_at": "2022-03-24T10:18:15.944Z",
    "repository": "kara.moe",
    "songorder": 3,
    "tags": {
      "authors": [
        "6bebcb04-2694-453c-9e0c-eb1a2e2718d9",
        "fa399f2f-ea1d-4902-8796-ea6d8218aff0"
      ],
      "collections": [
        "c7db86a0-ff64-4044-9be4-66dd1ef1d1c1"
      ],
      "creators": [
        "c3bd80ef-d1fe-427f-913f-a2ba2fe66114"
      ],
      "families": [
        "0377db02-3af6-43b8-9b08-c759df3d25c3"
      ],
      "groups": [
        "ae613721-1fbe-480d-ba6b-d6d0702b184d"
      ],
      "langs": [
        "4dcf9614-7914-42aa-99f4-dbce2e059133"
      ],
      "misc": [
        "fe819ff1-9db8-4a0f-85dc-0e322c9126c4"
      ],
      "origins": [
        "938de218-5343-4865-94d3-fb33f2eaa152"
      ],
      "series": [
        "2a97081b-21e7-4bec-813f-a0324559dfdb"
      ],
      "singers": [
        "458739df-9990-45ea-a8e7-ae6348c7534d"
      ],
      "songtypes": [
        "f02ad9b3-0bd9-4aad-85b3-9976739ba0e4"
      ],
      "songwriters": [
        "81d493c9-3353-40d4-b94d-7fa42d3b4229",
        "d7658a75-7945-4f08-8233-02f38dc385ba"
      ],
      "franchises": [
        "94c05ef3-bfff-4a4d-a1a4-b07c32389971"
      ]
    },
    "titles": {
      "qro": "Mousou♥Express",
      "jpn": "もうそう♥えくすぷれす"
    },
    "titles_default_language": "qro",
    "title": "Mousou♥Express",
    "year": 2013
  }
}