{
  "header": {
    "version": 4,
    "description": "Karaoke Mugen Karaoke Data File"
  },
  "medias": [
    {
      "version": "Default",
      "filename": "JPN - Zombieland Saga Revenge - AUDIO - Taiga yo Tomo ni Naitekure ~ Full Vers.mp3",
      "loudnorm": "-10.26,-1.11,3.60,-20.42,-0.76",
      "filesize": 8482623,
      "duration": 207,
      "default": true,
      "lyrics": [
        {
          "filename": "JPN - Zombieland Saga Revenge - AUDIO - Taiga yo Tomo ni Naitekure ~ Full Vers.ass",
          "default": true,
          "version": "Default"
        }
      ]
    }
  ],
  "data": {
    "created_at": "2023-11-21T16:13:17.766Z",
    "ignoreHooks": false,
    "kid": "debe7874-a66e-476c-9935-5fa7065e0249",
    "modified_at": "2023-11-21T16:13:17.766Z",
    "parents": [
      "a9764477-b560-4cc1-8c72-6b322a4421c7"
    ],
    "repository": "kara.moe",
    "tags": {
      "authors": [
        "84157b43-8a7a-482c-95d3-516757353835",
        "795f4b22-38e3-4bb9-afc1-0b197150525f"
      ],
      "collections": [
        "c7db86a0-ff64-4044-9be4-66dd1ef1d1c1"
      ],
      "creators": [
        "0a86e9ea-5e17-4371-8f2a-60c818324d58"
      ],
      "families": [
        "0377db02-3af6-43b8-9b08-c759df3d25c3"
      ],
      "genres": [
        "caa86df2-0d59-474b-885c-f240a9e891b0"
      ],
      "groups": [
        "8e209ae4-4381-438f-89dc-1b21752027d2",
        "966d1e74-d1f2-41e2-ab04-24279c22f562"
      ],
      "langs": [
        "4dcf9614-7914-42aa-99f4-dbce2e059133"
      ],
      "series": [
        "7710df0b-8906-4282-9f59-3ef39c7accd5"
      ],
      "singers": [
        "1c0c11e8-e365-4c49-b7cb-ab9ca077560d",
        "29774a6a-2bba-440d-b7e2-d033a3cca0cc",
        "6181ba3a-4b14-4fab-bbe9-0fa4147a6072",
        "f335316b-fad2-44bc-bc41-717f11ed454e",
        "f4dad5ba-e4b8-464d-98da-7002b9806862",
        "f574b547-1b37-4072-848c-93562d7a09d8"
      ],
      "singergroups": [
        "296a7e5c-acf6-4459-938f-ba3cbfa957f9"
      ],
      "songtypes": [
        "42a262ae-acba-4ab5-a446-c5789c96c821"
      ],
      "songwriters": [
        "3dddfa51-de14-4da0-8baf-2b40c94f3eb2",
        "cbd3ccbc-14c5-4f13-b461-6cfad840f5cd"
      ],
      "versions": [
        "c2143a7f-6970-450e-8a79-0302db9220a9"
      ],
      "franchises": [
        "8d73a7d5-dc57-4e08-9a54-1b79364c2e0b"
      ]
    },
    "titles": {
      "jpn": "大河よ共に泣いてくれ",
      "qro": "Taiga yo Tomo ni Naitekure"
    },
    "titles_default_language": "qro",
    "year": 2021
  }
}