{
  "header": {
    "version": 4,
    "description": "Karaoke Mugen Karaoke Data File"
  },
  "medias": [
    {
      "version": "Default",
      "filename": "JPN - SOUND HOLIC - MV - Optical Cellophane.mp4",
      "loudnorm": "-7.13,1.91,4.60,-17.30,-1.12",
      "filesize": 84462059,
      "duration": 144,
      "default": true,
      "lyrics": [
        {
          "filename": "JPN - SOUND HOLIC - MV - Optical Cellophane.ass",
          "default": true,
          "version": "Default"
        }
      ]
    }
  ],
  "data": {
    "created_at": "2017-10-11T17:02:22.000Z",
    "ignoreHooks": false,
    "kid": "db6eebc5-50e0-4d09-a93b-45ebbe1d8488",
    "modified_at": "2024-03-29T20:29:21.235Z",
    "repository": "kara.moe",
    "tags": {
      "authors": [
        "c9b8b391-648e-4681-b264-13eb63090ed2"
      ],
      "collections": [
        "c7db86a0-ff64-4044-9be4-66dd1ef1d1c1"
      ],
      "creators": [
        "1eca2ac8-7995-4858-8194-c184803a2d7b",
        "ca654b25-30b5-4054-a2c0-35028fdcae22"
      ],
      "families": [
        "0377db02-3af6-43b8-9b08-c759df3d25c3"
      ],
      "groups": [
        "3c14c864-533c-49e6-a3cc-6969f1233775"
      ],
      "langs": [
        "4dcf9614-7914-42aa-99f4-dbce2e059133"
      ],
      "singers": [
        "8ac88d22-022b-4d8e-a806-b27551a9b0d5"
      ],
      "singergroups": [
        "ca654b25-30b5-4054-a2c0-35028fdcae22"
      ],
      "songtypes": [
        "7be1b15c-cff8-4b37-a649-5c90f3d569a9"
      ],
      "songwriters": [
        "193e40b1-2a60-420b-ab8e-41a2eef9bf9c",
        "26cb5252-8510-49e0-897c-a611a05fc056"
      ],
      "franchises": [
        "1bdaa5a1-dfa6-4365-b746-7a0b194dafd6"
      ]
    },
    "titles": {
      "eng": "Optical Cellophane",
      "jpn": "オプティカル セロファン"
    },
    "titles_default_language": "eng",
    "year": 2008
  }
}