{
  "header": {
    "version": 4,
    "description": "Karaoke Mugen Karaoke Data File"
  },
  "medias": [
    {
      "version": "Default",
      "filename": "JPN - Inu x Boku SS - OP - Nirvana.mp4",
      "audiogain": 2.99,
      "loudnorm": "-19.83,-7.89,3.00,-29.91,-0.32",
      "filesize": 66306560,
      "duration": 93,
      "default": true,
      "lyrics": [
        {
          "filename": "JPN - Inu x Boku SS - OP - Nirvana.ass",
          "default": true,
          "version": "Default"
        }
      ]
    }
  ],
  "data": {
    "created_at": "2017-10-11T17:00:57.000Z",
    "ignoreHooks": false,
    "kid": "1f90a035-64b7-4252-aa2a-760ed745b718",
    "modified_at": "2022-07-07T00:31:42.580Z",
    "repository": "kara.moe",
    "tags": {
      "authors": [
        "5bdaba57-27f8-4568-8806-76a807728766"
      ],
      "collections": [
        "c7db86a0-ff64-4044-9be4-66dd1ef1d1c1"
      ],
      "creators": [
        "31087ed3-5edd-4d32-8379-ab70bf5db185"
      ],
      "families": [
        "0377db02-3af6-43b8-9b08-c759df3d25c3"
      ],
      "groups": [
        "ae613721-1fbe-480d-ba6b-d6d0702b184d",
        "9a8e0fbc-dcae-4989-be82-7cad3436f1f5"
      ],
      "langs": [
        "4dcf9614-7914-42aa-99f4-dbce2e059133"
      ],
      "origins": [
        "938de218-5343-4865-94d3-fb33f2eaa152"
      ],
      "series": [
        "62a25f28-f51d-496f-b350-c71d418776ad"
      ],
      "singers": [
        "c642c200-cc6a-40ae-ae88-f018f0c3073d"
      ],
      "songtypes": [
        "f02ad9b3-0bd9-4aad-85b3-9976739ba0e4"
      ],
      "songwriters": [
        "7deff575-e060-4dfa-ab34-59fe10328153"
      ]
    },
    "titles": {
      "eng": "Nirvana",
      "jpn": "ニルヴァーナ"
    },
    "titles_default_language": "eng",
    "title": "Nirvana",
    "year": 2012
  }
}