{
  "header": {
    "version": 4,
    "description": "Karaoke Mugen Karaoke Data File"
  },
  "medias": [
    {
      "version": "Default",
      "filename": "JPN - Ame wo Tsugeru Hyouryuu Danchi - PV - Natsugare ~ Short Vers.mp4",
      "audiogain": -9.02,
      "loudnorm": "-9.02,2.55,8.00,-19.21,-2.06",
      "filesize": 25173213,
      "duration": 89,
      "default": true,
      "lyrics": [
        {
          "filename": "JPN - Ame wo Tsugeru Hyouryuu Danchi - PV - Natsugare ~ Short Vers.ass",
          "default": true,
          "version": "Default"
        }
      ]
    }
  ],
  "data": {
    "created_at": "2022-04-20T21:49:14.405Z",
    "ignoreHooks": false,
    "kid": "3d4273f8-cec1-4343-9096-6e3c5d9085cd",
    "modified_at": "2022-10-19T15:08:13.485Z",
    "repository": "kara.moe",
    "tags": {
      "authors": [
        "78d42fee-8d3e-4bd5-9c44-98ce55f7d21f",
        "90698f28-1d62-4673-82c4-33ae96b1ba97"
      ],
      "collections": [
        "dbcf2c22-524d-4708-99bb-601703633927"
      ],
      "families": [
        "0377db02-3af6-43b8-9b08-c759df3d25c3"
      ],
      "groups": [
        "8e209ae4-4381-438f-89dc-1b21752027d2"
      ],
      "langs": [
        "4dcf9614-7914-42aa-99f4-dbce2e059133"
      ],
      "series": [
        "0d7126d0-eac3-48ee-806f-9194fbd0921e"
      ],
      "singers": [
        "d3f693d0-7d45-465e-82ed-a6723c600008"
      ],
      "singergroups": [
        "c7d361f6-c1cf-44b2-b40a-a18aa90f2d8f"
      ],
      "songtypes": [
        "66e195b9-64ea-432d-a917-2e2c88d26052"
      ],
      "songwriters": [
        "c7d361f6-c1cf-44b2-b40a-a18aa90f2d8f",
        "c83db176-81d3-42fe-bd43-daaa2790da33"
      ],
      "versions": [
        "d125c80a-86c1-4321-88e9-07b7800679b6"
      ]
    },
    "titles": {
      "jpn": "夏枯れ",
      "qro": "Natsugare"
    },
    "titles_default_language": "qro",
    "title": "Natsugare",
    "year": 2022
  }
}