{
  "header": {
    "version": 4,
    "description": "Karaoke Mugen Karaoke Data File"
  },
  "medias": [
    {
      "version": "Default",
      "filename": "JPN - Love Live! Superstar!! - MV - Distortion.mp4",
      "loudnorm": "-8.06,2.02,4.60,-18.14,-0.96",
      "filesize": 34012190,
      "duration": 207,
      "default": true,
      "lyrics": [
        {
          "filename": "JPN - Love Live! Superstar!! - MV - Distortion.ass",
          "default": true,
          "version": "Default"
        }
      ]
    }
  ],
  "data": {
    "created_at": "2024-04-28T17:29:47.317Z",
    "ignoreHooks": false,
    "kid": "3785085b-5bb4-41b1-a94f-1704e2a91790",
    "modified_at": "2024-04-28T17:29:47.440Z",
    "repository": "kara.moe",
    "tags": {
      "authors": [
        "16b136eb-921f-4c07-be38-ff92d5cc4313"
      ],
      "collections": [
        "c7db86a0-ff64-4044-9be4-66dd1ef1d1c1",
        "dbcf2c22-524d-4708-99bb-601703633927"
      ],
      "families": [
        "5391f9fe-638c-415f-8dc9-958e3a2c5787"
      ],
      "genres": [
        "caa86df2-0d59-474b-885c-f240a9e891b0"
      ],
      "groups": [
        "8e209ae4-4381-438f-89dc-1b21752027d2"
      ],
      "langs": [
        "4dcf9614-7914-42aa-99f4-dbce2e059133"
      ],
      "misc": [
        "1d6ceadf-a885-47e5-b23b-c07bf668a424"
      ],
      "series": [
        "ed46191b-997b-4c2d-8088-bb30a5e6d4ca"
      ],
      "singers": [
        "4e66c19f-a55a-4be7-a948-4eb45796b71f",
        "c1fd3a67-0c3b-4d95-9cd8-f6aa2c8cc5a8",
        "d8060e7f-5362-405e-9e83-b9c854ca6e3c"
      ],
      "singergroups": [
        "653e895b-3a82-4511-ac05-2a2999f3bc3c"
      ],
      "songtypes": [
        "7be1b15c-cff8-4b37-a649-5c90f3d569a9"
      ],
      "songwriters": [
        "d70187b8-ecb4-42d9-860d-523ff88a0525",
        "f77f4be8-1af3-4bab-9411-759dbd5bb583"
      ],
      "franchises": [
        "fd5d066e-e85a-4eea-8688-2979a887450a"
      ]
    },
    "titles": {
      "eng": "Distortion",
      "jpn": "ディストーション"
    },
    "titles_default_language": "eng",
    "year": 2024
  }
}