{
  "header": {
    "version": 4,
    "description": "Karaoke Mugen Karaoke Data File"
  },
  "medias": [
    {
      "version": "Default",
      "filename": "JPN - Yarichin Bitch Bu - OVA ED - Touch You.mp4",
      "audiogain": -3.08,
      "loudnorm": "-14.20,-3.80,2.40,-24.38,-0.22",
      "filesize": 30413332,
      "duration": 93,
      "default": true,
      "lyrics": [
        {
          "filename": "JPN - Yarichin Bitch Bu - OVA ED - Touch You.ass",
          "default": true,
          "version": "Default"
        }
      ]
    }
  ],
  "data": {
    "created_at": "2022-02-17T21:18:12.765Z",
    "kid": "221627cb-5a2f-4821-b616-43c102240754",
    "modified_at": "2022-07-20T11:30:10.944Z",
    "repository": "kara.moe",
    "tags": {
      "authors": [
        "dd4f1279-de1b-4d06-b80d-29c4878bfd8e"
      ],
      "creators": [
        "06661a53-d6b1-4916-881e-394628800693"
      ],
      "families": [
        "0377db02-3af6-43b8-9b08-c759df3d25c3"
      ],
      "groups": [
        "8c22c899-b3ed-42da-a548-ce00f950798b",
        "ae613721-1fbe-480d-ba6b-d6d0702b184d"
      ],
      "langs": [
        "4dcf9614-7914-42aa-99f4-dbce2e059133"
      ],
      "origins": [
        "2a6ef087-a000-4f8e-aeb5-9a7968756a36"
      ],
      "series": [
        "7f770637-d5d3-4f7b-a520-976459f33169"
      ],
      "singers": [
        "9c25d0ab-bdf8-4d12-afe3-8e71efc1b3ff"
      ],
      "songtypes": [
        "38c77c56-2b95-4040-b676-0994a8cb0597"
      ],
      "songwriters": [
        "270b91af-2e60-4dad-bbca-dc0b680a9efb",
        "73d2ad76-6394-4480-8953-9542854b7bba"
      ],
      "collections": [
        "c7db86a0-ff64-4044-9be4-66dd1ef1d1c1"
      ],
      "warnings": [
        "e82ce681-6d7b-4fb6-abe4-daa8aaa9bbf9"
      ]
    },
    "titles": {
      "eng": "Touch You"
    },
    "titles_default_language": "eng",
    "title": "Touch You",
    "year": 2018
  }
}