{
  "header": {
    "version": 4,
    "description": "Karaoke Mugen Karaoke Data File"
  },
  "medias": [
    {
      "version": "Default",
      "filename": "JPN - Zoku Owarimonogatari - OP - 07734.mp4",
      "audiogain": 6.13,
      "loudnorm": "-22.55,-8.88,3.50,-32.75,-0.70",
      "filesize": 48510830,
      "duration": 63,
      "default": true,
      "lyrics": [
        {
          "filename": "JPN - Zoku Owarimonogatari - OP - 07734.ass",
          "default": true,
          "version": "Default",
          "subchecksum": "9f4ee0c010304a38fdc1de82fca4f328"
        }
      ]
    }
  ],
  "data": {
    "created_at": "2019-04-03T10:39:08.000Z",
    "kid": "94e098bc-9304-4472-889a-0a053f393666",
    "modified_at": "2021-02-25T13:45:05.844Z",
    "repository": "kara.moe",
    "tags": {
      "authors": [
        "1df04771-a378-4f14-a5e1-1455187d681a"
      ],
      "collections": [
        "c7db86a0-ff64-4044-9be4-66dd1ef1d1c1"
      ],
      "creators": [
        "c3bd80ef-d1fe-427f-913f-a2ba2fe66114"
      ],
      "families": [
        "0377db02-3af6-43b8-9b08-c759df3d25c3"
      ],
      "groups": [
        "ae613721-1fbe-480d-ba6b-d6d0702b184d"
      ],
      "langs": [
        "4dcf9614-7914-42aa-99f4-dbce2e059133"
      ],
      "misc": [
        "fe819ff1-9db8-4a0f-85dc-0e322c9126c4"
      ],
      "origins": [
        "938de218-5343-4865-94d3-fb33f2eaa152"
      ],
      "series": [
        "7f626d79-28f1-4e14-85ad-4ebcca1b7fdc"
      ],
      "singers": [
        "c3cf11a9-2251-4b24-a7a9-0566202e456b"
      ],
      "songtypes": [
        "f02ad9b3-0bd9-4aad-85b3-9976739ba0e4"
      ],
      "songwriters": [
        "81d493c9-3353-40d4-b94d-7fa42d3b4229",
        "8c88f3c6-ea88-458e-8935-f94f8408e349",
        "d7658a75-7945-4f08-8233-02f38dc385ba"
      ],
      "franchises": [
        "94c05ef3-bfff-4a4d-a1a4-b07c32389971"
      ]
    },
    "title": "07734",
    "titles": {
      "eng": "07734"
    },
    "year": 2018,
    "titles_default_language": "eng"
  }
}