{
  "header": {
    "version": 4,
    "description": "Karaoke Mugen Karaoke Data File"
  },
  "medias": [
    {
      "version": "Default",
      "filename": "JPN - Mawaru Penguindrum - ED1 - DEAR FUTURE.mp4",
      "audiogain": 3.08,
      "loudnorm": "-19.84,-9.63,1.90,-29.97,0.18",
      "filesize": 28611378,
      "duration": 94,
      "default": true,
      "lyrics": [
        {
          "filename": "JPN - Mawaru Penguindrum - ED1 - DEAR FUTURE.ass",
          "default": true,
          "version": "Default"
        }
      ]
    }
  ],
  "data": {
    "created_at": "2017-10-11T17:01:14.000Z",
    "ignoreHooks": false,
    "kid": "881be62f-04e0-4a2a-abd8-7089f473e6eb",
    "modified_at": "2022-12-23T16:05:44.414Z",
    "repository": "kara.moe",
    "songorder": 1,
    "tags": {
      "authors": [
        "0081300d-c0f9-4cff-a4f7-e726a293a76b"
      ],
      "collections": [
        "c7db86a0-ff64-4044-9be4-66dd1ef1d1c1"
      ],
      "creators": [
        "a06f41a3-31b6-462a-a195-e48a11386da3"
      ],
      "families": [
        "0377db02-3af6-43b8-9b08-c759df3d25c3"
      ],
      "groups": [
        "8c22c899-b3ed-42da-a548-ce00f950798b",
        "ae613721-1fbe-480d-ba6b-d6d0702b184d"
      ],
      "langs": [
        "4dcf9614-7914-42aa-99f4-dbce2e059133"
      ],
      "origins": [
        "938de218-5343-4865-94d3-fb33f2eaa152"
      ],
      "series": [
        "1b9ed73e-d0a9-4251-be35-76eec2210c83"
      ],
      "singergroups": [
        "51302e4f-b3b1-4149-a469-f5fa220ccbcf"
      ],
      "songtypes": [
        "38c77c56-2b95-4040-b676-0994a8cb0597"
      ],
      "songwriters": [
        "73891345-3936-40de-9be6-65be73cea737",
        "97fbc0b6-6408-4273-bdb4-0c900e0ac945"
      ],
      "franchises": [
        "1b9ed73e-d0a9-4251-be35-76eec2210c83"
      ]
    },
    "titles": {
      "eng": "DEAR FUTURE"
    },
    "titles_default_language": "eng",
    "year": 2011
  }
}