{
  "header": {
    "version": 4,
    "description": "Karaoke Mugen Karaoke Data File"
  },
  "medias": [
    {
      "version": "Default",
      "filename": "JPN - Zero no Tsukaima F - OP - I'll be there for you.mp4",
      "audiogain": -8.26,
      "loudnorm": "-9.56,0.07,2.40,-19.74,-0.30",
      "filesize": 54153426,
      "duration": 92,
      "default": true,
      "lyrics": [
        {
          "filename": "JPN - Zero no Tsukaima F - OP - I'll be there for you.ass",
          "default": true,
          "version": "Default",
          "subchecksum": "649f0ca3c6c8a12a535ba4628ab04a9e"
        }
      ]
    }
  ],
  "data": {
    "created_at": "2017-10-11T17:02:13.000Z",
    "kid": "1df99e2e-efb0-4c69-8d1f-f0c1057bcf9f",
    "modified_at": "2021-02-25T13:44:35.730Z",
    "repository": "kara.moe",
    "tags": {
      "authors": [
        "5bdaba57-27f8-4568-8806-76a807728766"
      ],
      "collections": [
        "c7db86a0-ff64-4044-9be4-66dd1ef1d1c1"
      ],
      "creators": [
        "802a8ac8-b16f-40a4-944b-99956798c906"
      ],
      "families": [
        "0377db02-3af6-43b8-9b08-c759df3d25c3"
      ],
      "genres": [
        "4b80eca6-f44f-4262-a8d0-b6879d6b70cb"
      ],
      "groups": [
        "ae613721-1fbe-480d-ba6b-d6d0702b184d"
      ],
      "langs": [
        "4dcf9614-7914-42aa-99f4-dbce2e059133"
      ],
      "origins": [
        "938de218-5343-4865-94d3-fb33f2eaa152"
      ],
      "series": [
        "713675b6-dbf1-47b1-8ffa-0478834cceda"
      ],
      "singers": [
        "8e848b41-55e2-4f75-a153-37aece3c2169"
      ],
      "songtypes": [
        "f02ad9b3-0bd9-4aad-85b3-9976739ba0e4"
      ],
      "songwriters": [
        "12bf3975-e982-4cf7-900b-1784cbbae224",
        "3fd02899-3906-47b1-8e01-c5f9bb9e538d"
      ],
      "franchises": [
        "3a629b10-0be0-47b2-8aba-4a8eea2719ed"
      ]
    },
    "title": "I'll be there for you",
    "titles": {
      "eng": "I'LL BE THERE FOR YOU"
    },
    "year": 2012,
    "titles_default_language": "eng"
  }
}