{
  "header": {
    "version": 4,
    "description": "Karaoke Mugen Karaoke Data File"
  },
  "medias": [
    {
      "version": "Default",
      "filename": "JPN - Re Zero kara Hajimeru Isekai Seikatsu - IN - Straight Bet.mp4",
      "loudnorm": "-8.16,2.12,5.10,-18.19,-0.94",
      "filesize": 93369454,
      "duration": 251,
      "default": true,
      "lyrics": [
        {
          "filename": "JPN - Re Zero kara Hajimeru Isekai Seikatsu - IN - Straight Bet.ass",
          "default": true,
          "version": "Default"
        }
      ]
    }
  ],
  "data": {
    "created_at": "2019-06-23T17:40:17.000Z",
    "ignoreHooks": false,
    "kid": "b40dd42c-f92b-4398-af0d-c08a20b92785",
    "modified_at": "2024-05-25T16:38:42.504Z",
    "repository": "kara.moe",
    "tags": {
      "authors": [
        "523ead5e-981e-4993-af29-12524f7edcf1"
      ],
      "collections": [
        "c7db86a0-ff64-4044-9be4-66dd1ef1d1c1"
      ],
      "creators": [
        "01b5630b-d291-4ad5-a781-2cb717804d18"
      ],
      "families": [
        "0377db02-3af6-43b8-9b08-c759df3d25c3"
      ],
      "groups": [
        "2b4e9972-5e17-481b-99f5-d0787c0ada56",
        "ae613721-1fbe-480d-ba6b-d6d0702b184d"
      ],
      "langs": [
        "4dcf9614-7914-42aa-99f4-dbce2e059133"
      ],
      "origins": [
        "938de218-5343-4865-94d3-fb33f2eaa152"
      ],
      "series": [
        "6339add6-b9a3-46c4-9488-2660caa30487"
      ],
      "singergroups": [
        "80421b19-c148-48d8-af54-ac45aae600c6"
      ],
      "songtypes": [
        "5e5250d9-351a-4a82-98eb-55db50ad8962"
      ],
      "songwriters": [
        "80421b19-c148-48d8-af54-ac45aae600c6"
      ],
      "franchises": [
        "6339add6-b9a3-46c4-9488-2660caa30487"
      ]
    },
    "titles": {
      "eng": "STRAIGHT BET"
    },
    "titles_default_language": "eng",
    "year": 2016
  }
}