{
  "header": {
    "version": 4,
    "description": "Karaoke Mugen Karaoke Data File"
  },
  "medias": [
    {
      "version": "Default",
      "filename": "JPN - SOUND HOLIC - MV - Dial Connected.mp4",
      "loudnorm": "-7.08,2.91,3.70,-17.19,-1.00",
      "filesize": 19817623,
      "duration": 219,
      "default": true,
      "lyrics": [
        {
          "filename": "JPN - SOUND HOLIC - MV - Dial Connected.ass",
          "default": true,
          "version": "Default"
        }
      ]
    }
  ],
  "data": {
    "created_at": "2023-07-09T00:46:59.533Z",
    "ignoreHooks": false,
    "kid": "37afab3c-ae86-4fb9-8422-b38e99c3f31a",
    "modified_at": "2024-03-29T20:30:46.126Z",
    "repository": "kara.moe",
    "tags": {
      "authors": [
        "1fbfef73-6731-40df-ba51-65a54b9d1605"
      ],
      "collections": [
        "c7db86a0-ff64-4044-9be4-66dd1ef1d1c1"
      ],
      "creators": [
        "486af5cb-f59f-4061-9416-63e1c7f36784",
        "ca654b25-30b5-4054-a2c0-35028fdcae22"
      ],
      "families": [
        "0377db02-3af6-43b8-9b08-c759df3d25c3"
      ],
      "groups": [
        "3c14c864-533c-49e6-a3cc-6969f1233775"
      ],
      "langs": [
        "4dcf9614-7914-42aa-99f4-dbce2e059133"
      ],
      "singers": [
        "37333ba5-4924-4e13-8a24-b4ca5c810b22"
      ],
      "singergroups": [
        "ca654b25-30b5-4054-a2c0-35028fdcae22"
      ],
      "songtypes": [
        "7be1b15c-cff8-4b37-a649-5c90f3d569a9"
      ],
      "songwriters": [
        "26cb5252-8510-49e0-897c-a611a05fc056",
        "9b47e0e3-52a7-4acc-840a-d1bf28a5a6f8"
      ],
      "franchises": [
        "1bdaa5a1-dfa6-4365-b746-7a0b194dafd6"
      ]
    },
    "titles": {
      "eng": "Dial Connected"
    },
    "titles_default_language": "eng",
    "year": 2009
  }
}