{
  "header": {
    "version": 4,
    "description": "Karaoke Mugen Karaoke Data File"
  },
  "medias": [
    {
      "version": "Default",
      "filename": "JPN - Project SEKAI Colorful Stage! feat. Hatsune Miku - GAME AUDIO - EAGER LOVE REVENGE ~ Short Vers.mp3",
      "loudnorm": "-8.57,1.86,6.30,-19.02,-1.08",
      "filesize": 2512210,
      "duration": 143,
      "default": true,
      "lyrics": [
        {
          "filename": "JPN - Project SEKAI Colorful Stage! feat. Hatsune Miku - GAME AUDIO - EAGER LOVE REVENGE ~ Short Vers.ass",
          "default": true,
          "version": "Default"
        }
      ]
    }
  ],
  "data": {
    "created_at": "2024-05-17T21:29:26.541Z",
    "ignoreHooks": false,
    "kid": "42f6cf61-78ef-4814-a60f-4107cb1ec650",
    "modified_at": "2024-05-17T21:29:26.634Z",
    "parents": [
      "0e4b8aca-fd4f-4cac-a9ee-93da0007cd3b"
    ],
    "repository": "kara.moe",
    "tags": {
      "authors": [
        "a3a99b23-6c42-4d38-8863-491153187437"
      ],
      "collections": [
        "c7db86a0-ff64-4044-9be4-66dd1ef1d1c1"
      ],
      "creators": [
        "1e5648fb-22fc-474d-b865-254eb31fa000",
        "b8a3778d-0864-4135-9053-1def02d3262e"
      ],
      "genres": [
        "45623cae-6d68-4304-a49b-896d1d6f4580"
      ],
      "groups": [
        "8e209ae4-4381-438f-89dc-1b21752027d2"
      ],
      "langs": [
        "4dcf9614-7914-42aa-99f4-dbce2e059133"
      ],
      "origins": [
        "dbedd6b3-d125-4cd8-aa32-c4175e4ca3a3"
      ],
      "platforms": [
        "213a1a15-e73a-4a08-b3f6-b6e2745a82e5"
      ],
      "series": [
        "192b33fb-638a-4680-bdb2-a5adb9889849"
      ],
      "singers": [
        "4407ba0e-5de7-4add-870f-7ac95a4804c9"
      ],
      "songtypes": [
        "42a262ae-acba-4ab5-a446-c5789c96c821"
      ],
      "songwriters": [
        "b269bf90-79fc-4167-a78d-e22328df4ee0"
      ],
      "versions": [
        "d125c80a-86c1-4321-88e9-07b7800679b6"
      ]
    },
    "titles": {
      "eng": "EAGER LOVE REVENGE",
      "jpn": "恋は戦争",
      "qro": "Koi wa Sensô"
    },
    "titles_default_language": "eng",
    "titles_aliases": [
      "Love is War",
      "Sensou"
    ],
    "year": 2024
  }
}