{
  "header": {
    "version": 4,
    "description": "Karaoke Mugen Karaoke Data File"
  },
  "medias": [
    {
      "version": "Default",
      "filename": "JPN - Mahouka Koukou no Rettousei (2024) - ED2 - Snow Noir.mp4",
      "loudnorm": "-24.87,-11.20,5.90,-34.95,-1.19",
      "filesize": 27437807,
      "duration": 90,
      "default": true,
      "lyrics": [
        {
          "filename": "JPN - Mahouka Koukou no Rettousei (2024) - ED2 - Snow Noir.ass",
          "default": true,
          "version": "Default"
        }
      ]
    }
  ],
  "data": {
    "created_at": "2024-05-29T21:10:54.395Z",
    "ignoreHooks": false,
    "kid": "8ed9e2ad-46f0-42d2-9207-7ea8654fddb1",
    "modified_at": "2024-05-30T08:36:25.506Z",
    "repository": "kara.moe",
    "songorder": 2,
    "tags": {
      "authors": [
        "df9cb48f-334e-4ceb-b26e-e254ad323492"
      ],
      "collections": [
        "c7db86a0-ff64-4044-9be4-66dd1ef1d1c1"
      ],
      "creators": [
        "126e5cf8-763f-43e2-9b09-8a30b586f256"
      ],
      "families": [
        "0377db02-3af6-43b8-9b08-c759df3d25c3"
      ],
      "groups": [
        "8e209ae4-4381-438f-89dc-1b21752027d2",
        "966d1e74-d1f2-41e2-ab04-24279c22f562"
      ],
      "langs": [
        "4dcf9614-7914-42aa-99f4-dbce2e059133"
      ],
      "misc": [
        "fe819ff1-9db8-4a0f-85dc-0e322c9126c4"
      ],
      "origins": [
        "938de218-5343-4865-94d3-fb33f2eaa152"
      ],
      "series": [
        "3e461643-ecc1-44b2-ae7a-2fad64b127ad"
      ],
      "singers": [
        "30ab0f77-7ff4-4cba-8e41-43108392d02b"
      ],
      "songtypes": [
        "38c77c56-2b95-4040-b676-0994a8cb0597"
      ],
      "songwriters": [
        "7a5083d6-81c3-4e8f-8731-9d94871c496e",
        "803546f9-8ae3-407b-86b8-076c60c161b5"
      ],
      "franchises": [
        "9a17796f-7801-498a-adef-f397024bb9e5"
      ]
    },
    "titles": {
      "jpn": "スノーノワール",
      "eng": "Snow Noir"
    },
    "titles_default_language": "eng",
    "year": 2024
  }
}