{
  "header": {
    "description": "Karaoke Mugen Tag File",
    "version": 1
  },
  "tag": {
    "i18n": {
      "eng": "boggo"
    },
    "name": "boggo",
    "repository": "kara.moe",
    "tid": "15dc46d4-cf34-453a-a8de-09dcee4e7b04",
    "types": [
      "8",
      "songwriters"
    ]
  }
}