{
  "header": {
    "description": "Karaoke Mugen Tag File",
    "version": 1
  },
  "tag": {
    "i18n": {
      "eng": "Junichi Sato"
    },
    "name": "Junichi Sato",
    "tid": "79f4985a-308e-4fc8-8809-fc5f3f5b3ac8",
    "types": [
      "8",
      "songwriters"
    ],
    "repository": "kara.moe",
    "modified_at": "2020-03-31T19:04:35.184Z"
  }
}