{
  "header": {
    "description": "Karaoke Mugen Tag File",
    "version": 1
  },
  "tag": {
    "i18n": {
      "eng": "Linda Thompson"
    },
    "name": "Linda Thompson",
    "repository": "kara.moe",
    "tid": "75287e50-58c5-4536-98ac-3a3a3c3ee92b",
    "types": [
      "8",
      "songwriters"
    ]
  }
}