{
  "header": {
    "description": "Karaoke Mugen Tag File",
    "version": 1
  },
  "tag": {
    "i18n": {
      "eng": "MB2nd"
    },
    "name": "MB2nd",
    "repository": "kara.moe",
    "tid": "e17c06e3-95ab-4c49-ad26-5a411b81453b",
    "types": [
      "8",
      "songwriters"
    ]
  }
}