{
  "header": {
    "description": "Karaoke Mugen Tag File",
    "version": 1
  },
  "tag": {
    "aliases": [
      "MDOM 2",
      "Mitsudomoe Zouryouchuu!",
      "Three Way Struggle Increases!",
      "mitsudomoe 2",
      "超元气三姐妹 增量中!",
      "zouryouchuu"
    ],
    "external_database_ids": {
      "anilist": 9510,
      "myanimelist": 9510,
      "kitsu": 5765
    },
    "i18n": {
      "eng": "Mitsudomoe Zoryochu!",
      "fre": "Mitsudomoe Zôryôchû!",
      "jpn": "みつどもえ 増量中!",
      "qro": "Mitsudomoe Zôryôchû!"
    },
    "modified_at": "2020-03-31T19:04:32.257Z",
    "name": "Mitsudomoe Zôryôchû!",
    "repository": "kara.moe",
    "tid": "df4058e5-bed1-4155-8d40-6927993a5d56",
    "types": [
      "1",
      "series"
    ]
  }
}