{
  "header": {
    "description": "Karaoke Mugen Tag File",
    "version": 1
  },
  "tag": {
    "aliases": [
      "R+V",
      "Rosario & Vampire",
      "Rosario + Vampire",
      "rtv",
      "rtv1",
      "Крестик + Вампир",
      "Хрестик + Упир",
      "ספרי תפילה + ערפד",
      "روزاريو + فامباير",
      "十字架与吸血鬼"
    ],
    "external_database_ids": {
      "anilist": 2993,
      "myanimelist": 2993,
      "kitsu": 2706
    },
    "i18n": {
      "eng": "Rosario + Vampire",
      "jpn": "ロザリオとバンパイア",
      "qro": "Rosario to Vampire"
    },
    "modified_at": "2020-06-21T23:45:31.966Z",
    "name": "Rosario to Vampire",
    "repository": "kara.moe",
    "tid": "a7e3a8e8-946a-4a06-94ce-f6af8cd2e2a8",
    "types": [
      "1",
      "18",
      "franchises",
      "series"
    ]
  }
}