{
  "header": {
    "description": "Karaoke Mugen Tag File",
    "version": 1
  },
  "tag": {
    "external_database_ids": {
      "anilist": 129277,
      "myanimelist": 47257,
      "kitsu": 44035
    },
    "i18n": {
      "eng": "The Duke of Death and His Maid",
      "jpn": "死神坊ちゃんと黒メイド",
      "qro": "Shinigami Bocchan to Kuro Maid"
    },
    "modified_at": "2021-09-04T19:10:53.470Z",
    "name": "Shinigami Bocchan to Kuro Maid",
    "repository": "kara.moe",
    "tid": "10e804f8-cec2-458c-a77b-bc8080216324",
    "types": [
      "1",
      "series"
    ]
  }
}