{
  "header": {
    "description": "Karaoke Mugen Tag File",
    "version": 1
  },
  "tag": {
    "i18n": {
      "fre": "Emission",
      "eng": "Show"
    },
    "name": "Show",
    "short": "SHOW",
    "tid": "8dd8d2a4-913a-4b0b-a555-1121cc603a57",
    "types": [
      "11",
      "origins"
    ],
    "repository": "kara.moe",
    "modified_at": "2020-03-31T19:04:37.564Z"
  }
}