{
  "header": {
    "description": "Karaoke Mugen Tag File",
    "version": 1
  },
  "tag": {
    "aliases": [
      "Souichirou"
    ],
    "i18n": {
      "jpn": "鈴木惣一朗",
      "qro": "Souichirô Suzuki"
    },
    "name": "Souichirô Suzuki",
    "repository": "kara.moe",
    "tid": "f7ba1fd9-ea40-45d9-a768-ab92f35c7847",
    "types": [
      "8",
      "songwriters"
    ]
  }
}