{
  "header": {
    "description": "Karaoke Mugen Tag File",
    "version": 1
  },
  "tag": {
    "i18n": {
      "eng": "Wanko"
    },
    "name": "Wanko",
    "repository": "kara.moe",
    "tid": "91c7b3d5-8aaf-4a7d-8b5f-097350c06e7f",
    "types": [
      "2",
      "singers"
    ]
  }
}