{
  "header": {
    "description": "Karaoke Mugen Tag File",
    "version": 1
  },
  "tag": {
    "i18n": {
      "eng": "Wannyanpu"
    },
    "name": "Wannyanpu",
    "repository": "kara.moe",
    "tid": "f0155ec7-5c00-4fac-9203-03ea2712e7ad",
    "types": [
      "4",
      "creators"
    ]
  }
}