{
  "header": {
    "description": "Karaoke Mugen Tag File",
    "version": 1
  },
  "tag": {
    "i18n": {
      "qro": "yuigot"
    },
    "name": "yuigot",
    "repository": "kara.moe",
    "tid": "12a3291b-1ff2-46f5-b27d-ccb2505dd89c",
    "types": [
      "8",
      "songwriters"
    ]
  }
}