{
  "header": {
    "description": "Karaoke Mugen Tag File",
    "version": 1
  },
  "tag": {
    "external_database_ids": {
      "anilist": 100483,
      "myanimelist": 36726,
      "kitsu": 14090
    },
    "i18n": {
      "eng": "Yuna and the Haunted Hot Springs",
      "fre": "Yûna de la pension Yuragi",
      "jpn": "ゆらぎ荘の幽奈さん",
      "qro": "Yuragi-sô no Yûna-san"
    },
    "modified_at": "2020-03-31T19:04:33.188Z",
    "name": "Yuragi-sô no Yûna-san",
    "repository": "kara.moe",
    "tid": "34aa1231-d2a1-4458-b6b5-22470f0df487",
    "types": [
      "1",
      "series"
    ]
  }
}