{
  "header": {
    "description": "Karaoke Mugen Tag File",
    "version": 1
  },
  "tag": {
    "i18n": {
      "eng": "Yûsuke Sakamoto"
    },
    "name": "Yûsuke Sakamoto",
    "tid": "9bdf8018-87e7-4caf-a4f1-66a728dd7eaa",
    "types": [
      "8",
      "songwriters"
    ],
    "repository": "kara.moe",
    "modified_at": "2020-03-31T19:04:38.838Z"
  }
}